^C:\USERS\ANTHONY\SOURCE\REPOS\CARDPROJECT\CARDPROJECT\MAIN.CPP
C:\USERS\ANTHONY\SOURCE\REPOS\CARDPROJECT\CARDPROJECT\DEBUG\VC141.PDB
C:\USERS\ANTHONY\SOURCE\REPOS\CARDPROJECT\CARDPROJECT\DEBUG\VC141.IDB
C:\USERS\ANTHONY\SOURCE\REPOS\CARDPROJECT\CARDPROJECT\DEBUG\MAIN.OBJ
